[
    {
        "num": "1",
        "N": "",
        "Q": "В: Как оформлены аудиторы в компании в момент проведения проекта? – штат, ГПХ, договор не заключается (устанавливается мобильное приложение), другое?",
        "C": "",
        "A": "Непосредственным нанимателем конечных исполнителей (агентов) является наш кипрский партнер «101XP Limited». Оплата осуществляется на основании принятой агентами открытой оферты, размещенной на сайте millionagents.com \nООО «МИП» уплачивает все положенные налоги и сборы в рамках такой схемы работы."
    },
    {
        "num": "2",
        "N": "",
        "Q": "Компания заказчика не является плательщиками НДС. Есть ли у вас возможность также оказать услуги от ООО/ИП без НДС с тем чтобы уменьшить итоговую сумму? 111111",
        "C": "",
        "A": ""
    },
    {
        "num": "3",
        "N": "",
        "Q": "Мы собираемся запустить рекламную акцию в магазинах, таргетированную на студентов. Для выбора оптимальной торговой сети нам необходимы данные по посещениям магазинов для покупки бытовой химии данной целевой аудторией (для начала в Москве, но можем обсудить города-миллионники). Подскажите, сможет ли Ваш краудсорсинг инструмент нам помочь?",
        "C": "",
        "A": "Мы целенаправленно и планомерно создаем софт, отвечающий нескольким критериям: \nа) оперативность сбора большого массива качественной информации, проходящей многоуровневый чек на достоверность и пригодность, \nб) оперативность консолидации этих массивов в сводные отчеты (день в день),\nв) удобство управления аудитами - постановки задач, контроля процесса сбора информации, настройки экспорта в любую нужную форму, и тд.\n\nИли:\n\nНаша специализация - масштабный сбор достоверной полевой информации, моментальная проверка и консолидация ее в итоговый отчет в пару кликов, осуществляемые с помощью собственной (безбумажной) технологии сбора и обработки данных.\nМы не занимаемся рекрутингом и не являемся btl-агентством. Мы собираем, проверяем и отдаем клиенту собранные данные - быстро и качественно. \nПо присланному вами запросу можем предложить вам использование нашей платформы в качестве SaaS-решения.\n"
    }
]